rtl/vpu/pcpi_timing.vcd
$version Generated by VerilatedVcd $end
$timescale 1ps $end
 $scope module TOP $end
  $var wire 1 s clk $end
  $var wire 1 t resetn $end
  $var wire 1 u pcpi_valid $end
  $var wire 32 v pcpi_insn [31:0] $end
  $var wire 32 w pcpi_rs1 [31:0] $end
  $var wire 32 x pcpi_rs2 [31:0] $end
  $var wire 1 y pcpi_wr $end
  $var wire 32 z pcpi_rd [31:0] $end
  $var wire 1 { pcpi_wait $end
  $var wire 1 | pcpi_ready $end
  $var wire 32 } csr_vl [31:0] $end
  $var wire 32 ~ csr_vtype [31:0] $end
  $var wire 3 !! dbg_reg_sel [2:0] $end
  $var wire 2 "! dbg_elem_sel [1:0] $end
  $var wire 32 #! dbg_rdata [31:0] $end
  $var wire 1 $! dbg_we $end
  $var wire 32 %! dbg_wdata [31:0] $end
  $scope module vpu_alu $end
   $var wire 32 8! VLEN [31:0] $end
   $var wire 32 9! EEW [31:0] $end
   $var wire 32 :! NREGS [31:0] $end
   $var wire 1 s clk $end
   $var wire 1 t resetn $end
   $var wire 1 u pcpi_valid $end
   $var wire 32 v pcpi_insn [31:0] $end
   $var wire 32 w pcpi_rs1 [31:0] $end
   $var wire 32 x pcpi_rs2 [31:0] $end
   $var wire 1 y pcpi_wr $end
   $var wire 32 z pcpi_rd [31:0] $end
   $var wire 1 { pcpi_wait $end
   $var wire 1 | pcpi_ready $end
   $var wire 32 } csr_vl [31:0] $end
   $var wire 32 ~ csr_vtype [31:0] $end
   $var wire 3 !! dbg_reg_sel [2:0] $end
   $var wire 2 "! dbg_elem_sel [1:0] $end
   $var wire 32 #! dbg_rdata [31:0] $end
   $var wire 1 $! dbg_we $end
   $var wire 32 %! dbg_wdata [31:0] $end
   $var wire 32 ;! VLMAX [31:0] $end
   $var wire 128 ) vreg[0] [127:0] $end
   $var wire 128 - vreg[1] [127:0] $end
   $var wire 128 1 vreg[2] [127:0] $end
   $var wire 128 5 vreg[3] [127:0] $end
   $var wire 128 9 vreg[4] [127:0] $end
   $var wire 128 = vreg[5] [127:0] $end
   $var wire 128 A vreg[6] [127:0] $end
   $var wire 128 E vreg[7] [127:0] $end
   $var wire 32 # init_i [31:0] $end
   $var wire 1 &! is_rvv $end
   $var wire 6 '! funct6 [5:0] $end
   $var wire 1 (! vm_in $end
   $var wire 3 )! vs2_in [2:0] $end
   $var wire 3 *! vs1_in [2:0] $end
   $var wire 3 +! vd_in [2:0] $end
   $var wire 1 ,! is_ivv $end
   $var wire 1 -! is_vadd $end
   $var wire 1 .! is_vsub $end
   $var wire 1 /! is_vand $end
   $var wire 1 0! is_vor $end
   $var wire 1 1! is_vxor $end
   $var wire 1 2! is_vsll $end
   $var wire 1 3! is_vsrl $end
   $var wire 1 4! is_ivv_any $end
   $var wire 1 5! is_mvv $end
   $var wire 1 $ is_vmul $end
   $var wire 1 % is_vredsum $end
   $var wire 1 & is_vmvxs $end
   $var wire 1 6! is_opf $end
   $var wire 1 ' is_vmvvx $end
   $var wire 1 7! is_valu_any $end
   $var wire 1 ( is_any $end
   $var wire 6 I funct6_r [5:0] $end
   $var wire 1 J vm_r $end
   $var wire 3 K vs2_r [2:0] $end
   $var wire 3 L vs1_r [2:0] $end
   $var wire 3 M vd_r [2:0] $end
   $var wire 32 N vl_r [31:0] $end
   $var wire 128 O op_a_r [127:0] $end
   $var wire 128 S op_b_r [127:0] $end
   $var wire 32 W rs1_r [31:0] $end
   $var wire 1 X is_vmvvx_r $end
   $var wire 1 Y is_vmvxs_r $end
   $var wire 1 Z is_vredsum_r $end
   $var wire 1 [ is_vmul_r $end
   $var wire 32 \ scalar_result_r [31:0] $end
   $var wire 1 ] has_scalar_r $end
   $var wire 32 ^ res_ivv[0] [31:0] $end
   $var wire 32 _ res_ivv[1] [31:0] $end
   $var wire 32 ` res_ivv[2] [31:0] $end
   $var wire 32 a res_ivv[3] [31:0] $end
   $var wire 32 b res_mul[0] [31:0] $end
   $var wire 32 c res_mul[1] [31:0] $end
   $var wire 32 d res_mul[2] [31:0] $end
   $var wire 32 e res_mul[3] [31:0] $end
   $var wire 32 f vred_sum [31:0] $end
   $var wire 3 <! S_RESET [2:0] $end
   $var wire 3 =! S_IDLE [2:0] $end
   $var wire 3 >! S_EXEC [2:0] $end
   $var wire 3 ?! S_DONE [2:0] $end
   $var wire 3 @! S_WAIT [2:0] $end
   $var wire 3 g state [2:0] $end
   $var wire 3 h rst_cnt [2:0] $end
   $var wire 1 i ready_r $end
   $var wire 32 j i [31:0] $end
   $scope module elem[0] $end
    $var wire 32 k a [31:0] $end
    $var wire 32 l b [31:0] $end
   $upscope $end
   $scope module elem[1] $end
    $var wire 32 m a [31:0] $end
    $var wire 32 n b [31:0] $end
   $upscope $end
   $scope module elem[2] $end
    $var wire 32 o a [31:0] $end
    $var wire 32 p b [31:0] $end
   $upscope $end
   $scope module elem[3] $end
    $var wire 32 q a [31:0] $end
    $var wire 32 r b [31:0] $end
   $upscope $end
  $upscope $end
 $upscope $end
$enddefinitions $end


#0
b00000000000000000000000000001000 #
0$
0%
0&
0'
0(
b00000000000000000000000000000000000000000000000000000000000000000000000000000000000000000000000000000000000000000000000000000000 )
b00000000000000000000000000000000000000000000000000000000000000000000000000000000000000000000000000000000000000000000000000000000 -
b00000000000000000000000000000000000000000000000000000000000000000000000000000000000000000000000000000000000000000000000000000000 1
b00000000000000000000000000000000000000000000000000000000000000000000000000000000000000000000000000000000000000000000000000000000 5
b00000000000000000000000000000000000000000000000000000000000000000000000000000000000000000000000000000000000000000000000000000000 9
b00000000000000000000000000000000000000000000000000000000000000000000000000000000000000000000000000000000000000000000000000000000 =
b00000000000000000000000000000000000000000000000000000000000000000000000000000000000000000000000000000000000000000000000000000000 A
b00000000000000000000000000000000000000000000000000000000000000000000000000000000000000000000000000000000000000000000000000000000 E
b000000 I
0J
b000 K
b000 L
b000 M
b00000000000000000000000000000000 N
b00000000000000000000000000000000000000000000000000000000000000000000000000000000000000000000000000000000000000000000000000000000 O
b00000000000000000000000000000000000000000000000000000000000000000000000000000000000000000000000000000000000000000000000000000000 S
b00000000000000000000000000000000 W
0X
0Y
0Z
0[
b00000000000000000000000000000000 \
0]
b00000000000000000000000000000000 ^
b00000000000000000000000000000000 _
b00000000000000000000000000000000 `
b00000000000000000000000000000000 a
b00000000000000000000000000000000 b
b00000000000000000000000000000000 c
b00000000000000000000000000000000 d
b00000000000000000000000000000000 e
b00000000000000000000000000000000 f
b000 g
b000 h
0i
b00000000000000000000000000000000 j
b00000000000000000000000000000000 k
b00000000000000000000000000000000 l
b00000000000000000000000000000000 m
b00000000000000000000000000000000 n
b00000000000000000000000000000000 o
b00000000000000000000000000000000 p
b00000000000000000000000000000000 q
b00000000000000000000000000000000 r
0s
0t
0u
b00000000000000000000000000000000 v
b00000000000000000000000000000000 w
b00000000000000000000000000000000 x
0y
b00000000000000000000000000000000 z
1{
0|
b00000000000000000000000000000100 }
b00000000000000000000000000010000 ~
b000 !!
b00 "!
b00000000000000000000000000000000 #!
0$!
b00000000000000000000000000000000 %!
0&!
b000000 '!
0(!
b000 )!
b000 *!
b000 +!
0,!
0-!
0.!
0/!
00!
01!
02!
03!
04!
05!
06!
07!
b00000000000000000000000010000000 8!
b00000000000000000000000000100000 9!
b00000000000000000000000000001000 :!
b00000000000000000000000000000100 ;!
b000 <!
b001 =!
b010 >!
b011 ?!
b100 @!
#5
1s
#10
0s
#15
1s
#20
0s
1t
#25
b001 h
1s
#30
0s
#35
b010 h
1s
#40
0s
#45
b011 h
1s
#50
0s
#55
b100 h
1s
#60
0s
#65
b101 h
1s
#70
0s
#75
b110 h
1s
#80
0s
#85
b111 h
1s
#90
0s
#95
b001 g
1s
0{
#100
0s
#105
1s
#110
0s
#115
1s
#120
0s
#125
1s
#130
0s
#135
1s
#140
0s
b010 !!
1$!
b00000000000000000000000000000001 %!
#145
b00000000000000000000000000000000000000000000000000000000000000000000000000000000000000000000000000000000000000000000000000000001 1
1s
b00000000000000000000000000000001 #!
#150
0s
b01 "!
b00000000000000000000000000000000 #!
b00000000000000000000000000000010 %!
#155
b00000000000000000000000000000000000000000000000000000000000000000000000000000000000000000000001000000000000000000000000000000001 1
1s
b00000000000000000000000000000010 #!
#160
0s
b10 "!
b00000000000000000000000000000000 #!
b00000000000000000000000000000011 %!
#165
b00000000000000000000000000000000000000000000000000000000000000110000000000000000000000000000001000000000000000000000000000000001 1
1s
b00000000000000000000000000000011 #!
#170
0s
b11 "!
b00000000000000000000000000000000 #!
b00000000000000000000000000000100 %!
#175
b00000000000000000000000000000100000000000000000000000000000000110000000000000000000000000000001000000000000000000000000000000001 1
1s
b00000000000000000000000000000100 #!
#180
0s
b011 !!
b00 "!
b00000000000000000000000000000000 #!
b00000000000000000000000000001010 %!
#185
b00000000000000000000000000000000000000000000000000000000000000000000000000000000000000000000000000000000000000000000000000001010 5
1s
b00000000000000000000000000001010 #!
#190
0s
b01 "!
b00000000000000000000000000000000 #!
b00000000000000000000000000010100 %!
#195
b00000000000000000000000000000000000000000000000000000000000000000000000000000000000000000001010000000000000000000000000000001010 5
1s
b00000000000000000000000000010100 #!
#200
0s
b10 "!
b00000000000000000000000000000000 #!
b00000000000000000000000000011110 %!
#205
b00000000000000000000000000000000000000000000000000000000000111100000000000000000000000000001010000000000000000000000000000001010 5
1s
b00000000000000000000000000011110 #!
#210
0s
b11 "!
b00000000000000000000000000000000 #!
b00000000000000000000000000101000 %!
#215
b00000000000000000000000000101000000000000000000000000000000111100000000000000000000000000001010000000000000000000000000000001010 5
1s
b00000000000000000000000000101000 #!
#220
0s
0$!
#225
1s
#230
0s
#235
1s
#240
0s
#245
1s
#250
0s
#255
1s
#260
0s
#265
1s
#270
0s
#275
1s
#280
0s
#285
1s
#292
#295
1(
1J
b010 K
b011 L
b001 M
b00000000000000000000000000000100 N
b00000000000000000000000000000100000000000000000000000000000000110000000000000000000000000000001000000000000000000000000000000001 O
b00000000000000000000000000101000000000000000000000000000000111100000000000000000000000000001010000000000000000000000000000001010 S
b00000000000000000000000000001011 ^
b00000000000000000000000000010110 _
b00000000000000000000000000100001 `
b00000000000000000000000000101100 a
b00000000000000000000000000001010 b
b00000000000000000000000000101000 c
b00000000000000000000000001011010 d
b00000000000000000000000010100000 e
b00000000000000000000000000010100 f
b010 g
b00000000000000000000000000000001 k
b00000000000000000000000000001010 l
b00000000000000000000000000000010 m
b00000000000000000000000000010100 n
b00000000000000000000000000000011 o
b00000000000000000000000000011110 p
b00000000000000000000000000000100 q
b00000000000000000000000000101000 r
1u
b00000010001000011000000011010111 v
1{
1&!
1(!
b010 )!
b011 *!
b001 +!
1,!
1-!
14!
17!
#300
0s
#305
b00000000000000000000000000101100000000000000000000000000001000010000000000000000000000000001011000000000000000000000000000001011 -
b011 g
b00000000000000000000000000000100 j
1s
#310
0s
#315
b100 g
1i
1s
1|
#320
0s
#325
b001 g
0i
1s
0|
#330
0(
0s
0u
0{
0-!
04!
07!
#335
1s
#340
0s
#345
1s
#350
0s
#355
1s
#360
0s
#365
1s
#370
0s
#375
1s
#380
0s
#385
1s
#390
0s
#395
1s
#402
#405
1&
1(
b010000 I
b001 K
b000 L
b000 M
b00000000000000000000000000101100000000000000000000000000001000010000000000000000000000000001011000000000000000000000000000001011 O
b00000000000000000000000000000000000000000000000000000000000000000000000000000000000000000000000000000000000000000000000000000000 S
1Y
b00000000000000000000000000000000 ^
b00000000000000000000000000000000 _
b00000000000000000000000000000000 `
b00000000000000000000000000000000 a
b00000000000000000000000000000000 b
b00000000000000000000000000000000 c
b00000000000000000000000000000000 d
b00000000000000000000000000000000 e
b00000000000000000000000001101110 f
b010 g
b00000000000000000000000000001011 k
b00000000000000000000000000000000 l
b00000000000000000000000000010110 m
b00000000000000000000000000000000 n
b00000000000000000000000000100001 o
b00000000000000000000000000000000 p
b00000000000000000000000000101100 q
b00000000000000000000000000000000 r
1u
b01000010000100000010000001010111 v
1{
b010000 '!
b001 )!
b000 *!
b000 +!
0,!
15!
#410
0s
#415
b00000000000000000000000000001011 \
1]
b011 g
1s
b00000000000000000000000000001011 z
#420
0s
#425
b100 g
1i
1s
1y
1|
#430
0s
#435
b001 g
0i
1s
0y
0|
#440
0&
0(
0s
0u
0{
#445
0]
1s
